wavedb/test_vcds/vga.vcd
$version Generated by VerilatedVcd $end
$date Thu Mar 12 23:21:49 2020
 $end
$timescale   1ns $end

 $scope module TOP $end
  $var wire  1 % clock $end
  $var wire  1 & reset $end
  $var wire 10 ) vga_b [9:0] $end
  $var wire 10 , vga_b_DAC [9:0] $end
  $var wire  1 3 vga_blank $end
  $var wire  1 / vga_clock $end
  $var wire 10 ( vga_g [9:0] $end
  $var wire 10 + vga_g_DAC [9:0] $end
  $var wire  1 1 vga_hs $end
  $var wire 10 ' vga_r [9:0] $end
  $var wire 10 * vga_r_DAC [9:0] $end
  $var wire  1 0 vga_sync_dac $end
  $var wire  1 2 vga_vs $end
  $var wire 10 - x_addr [9:0] $end
  $var wire 10 . y_addr [9:0] $end
  $scope module vga $end
   $var wire 10 : H_BEGIN [9:0] $end
   $var wire 10 9 H_RESET [9:0] $end
   $var wire 10 8 H_SIZE [9:0] $end
   $var wire 10 6 H_SYNC_BP [9:0] $end
   $var wire 10 7 H_SYNC_FP [9:0] $end
   $var wire 10 5 H_SYNC_LOW [9:0] $end
   $var wire 10 @ V_BEGIN [9:0] $end
   $var wire 10 ? V_RESET [9:0] $end
   $var wire 10 > V_SIZE [9:0] $end
   $var wire 10 < V_SYNC_BP [9:0] $end
   $var wire 10 = V_SYNC_FP [9:0] $end
   $var wire 10 ; V_SYNC_LOW [9:0] $end
   $var wire  1 % clock $end
   $var wire  1 & reset $end
   $var wire  5 4 state_idle [4:0] $end
   $var wire 10 ) vga_b [9:0] $end
   $var wire 10 , vga_b_DAC [9:0] $end
   $var wire  1 3 vga_blank $end
   $var wire  1 / vga_clock $end
   $var wire 10 ( vga_g [9:0] $end
   $var wire 10 + vga_g_DAC [9:0] $end
   $var wire  1 1 vga_hs $end
   $var wire 10 ' vga_r [9:0] $end
   $var wire 10 * vga_r_DAC [9:0] $end
   $var wire  1 0 vga_sync_dac $end
   $var wire  1 2 vga_vs $end
   $var wire 10 - x_addr [9:0] $end
   $var wire 10 # x_cnt [9:0] $end
   $var wire 10 . y_addr [9:0] $end
   $var wire 10 $ y_cnt [9:0] $end
  $upscope $end
 $upscope $end
$enddefinitions $end


#8
b0000000000 #
b0000000000 $
0%
1&
b0000000000 '
b0010000000 (
b0000101100 )
b0000000000 *
b0000000000 +
b0000000000 ,
b0000000000 -
b0000000000 .
0/
00
11
12
13
b00000 4
b0001100000 5
b0000110000 6
b0000010000 7
b1010000000 8
b1100100000 9
b0010100000 :
b0000000010 ;
b0000100001 <
b0000001010 =
b0111100000 >
b1000001101 ?
b0000101101 @
#10
1%
#15
0%
#18
0&
#20
1%
1/
#25
0%
#28
#30
b0000000001 #
1%
0/
#35
0%
#38
#40
1%
1/
#45
0%
#48
#50
b0000000010 #
1%
0/
#55
0%
#58
#60
1%
1/
#65
0%
#68
#70
b0000000011 #
1%
0/
#75
0%
#78
#80
1%
1/
#85
0%
#88
#90
b0000000100 #
1%
0/
#95
0%
#98
#100
1%
1/
#105
0%
#108
#110
b0000000101 #
1%
0/
#115
0%
#118
#120
1%
1/
#125
0%
#128
#130
b0000000110 #
1%
0/
#135
0%
#138
#140
1%
1/
#145
0%
#148
#150
b0000000111 #
1%
0/
#155
0%
#158
#160
1%
1/
#165
0%
#168
#170
b0000001000 #
1%
0/
#175
0%
#178
#180
1%
1/
#185
0%
#188
#190
b0000001001 #
1%
0/
#195
0%
#198
#200
1%
1/
#205
0%
#208
#210
b0000001010 #
1%
0/
#215
0%
#218
#220
1%
1/
#225
0%
#228
#230
b0000001011 #
1%
0/
#235
0%
#238
#240
1%
1/
#245
0%
#248
#250
b0000001100 #
1%
0/
#255
0%
#258
#260
1%
1/
#265
0%
#268
#270
b0000001101 #
1%
0/
#275
0%
#278
#280
1%
1/
#285
0%
#288
#290
b0000001110 #
1%
0/
#295
0%
#298
#300
1%
1/
#305
0%
#308
#310
b0000001111 #
1%
0/
#315
0%
#318
#320
1%
1/
#325
0%
#328
#330
b0000010000 #
1%
0/
01
03
#335
0%
#338
#340
1%
1/
#345
0%
#348
#350
b0000010001 #
1%
0/
#355
0%
#358
#360
1%
1/
#365
0%
#368
#370
b0000010010 #
1%
0/
#375
0%
#378
#380
1%
1/
#385
0%
#388
#390
b0000010011 #
1%
0/
#395
0%
#398
#400
1%
1/
#405
0%
#408
#410
b0000010100 #
1%
0/
#415
0%
#418
#420
1%
1/
#425
0%
#428
#430
b0000010101 #
1%
0/
#435
0%
#438
#440
1%
1/
#445
0%
#448
#450
b0000010110 #
1%
0/
#455
0%
#458
#460
1%
1/
#465
0%
#468
#470
b0000010111 #
1%
0/
#475
0%
#478
#480
1%
1/
#485
0%
#488
#490
b0000011000 #
1%
0/
#495
0%
#498
#500
1%
1/
#505
0%
#508
#510
b0000011001 #
1%
0/
#515
0%
#518
#520
1%
1/
#525
0%
#528
#530
b0000011010 #
1%
0/
#535
0%
#538
#540
1%
1/
#545
0%
#548
#550
b0000011011 #
1%
0/
#555
0%
#558
#560
1%
1/
#565
0%
#568
#570
b0000011100 #
1%
0/
#575
0%
#578
#580
1%
1/
#585
0%
#588
#590
b0000011101 #
1%
0/
#595
0%
#598
#600
1%
1/
#605
0%
#608
#610
b0000011110 #
1%
0/
#615
0%
#618
#620
1%
1/
#625
0%
#628
#630
b0000011111 #
1%
0/
#635
0%
#638
#640
1%
1/
#645
0%
#648
#650
b0000100000 #
1%
0/
#655
0%
#658
#660
1%
1/
#665
0%
#668
#670
b0000100001 #
1%
0/
#675
0%
#678
#680
1%
1/
#685
0%
#688
#690
b0000100010 #
1%
0/
#695
0%
#698
#700
1%
1/
#705
0%
#708
#710
b0000100011 #
1%
0/
#715
0%
#718
#720
1%
1/
#725
0%
#728
#730
b0000100100 #
1%
0/
#735
0%
#738
#740
1%
1/
#745
0%
#748
#750
b0000100101 #
1%
0/
#755
0%
#758
#760
1%
1/
#765
0%
#768
#770
b0000100110 #
1%
0/
#775
0%
#778
#780
1%
1/
#785
0%
#788
#790
b0000100111 #
1%
0/
#795
0%
#798
#800
1%
1/
#805
0%
#808
#810
b0000101000 #
1%
0/
#815
0%
#818
#820
1%
1/
#825
0%
#828
#830
b0000101001 #
1%
0/
#835
0%
#838
#840
1%
1/
#845
0%
#848
#850
b0000101010 #
1%
0/
#855
0%
#858
#860
1%
1/
#865
0%
#868
#870
b0000101011 #
1%
0/
#875
0%
#878
#880
1%
1/
#885
0%
#888
#890
b0000101100 #
1%
0/
#895
0%
#898
#900
1%
1/
#905
0%
#908
#910
b0000101101 #
1%
0/
#915
0%
#918
#920
1%
1/
#925
0%
#928
#930
b0000101110 #
1%
0/
#935
0%
#938
#940
1%
1/
#945
0%
#948
#950
b0000101111 #
1%
0/
#955
0%
#958
#960
1%
1/
#965
0%
#968
#970
b0000110000 #
1%
0/
#975
0%
#978
#980
1%
1/
#985
0%
#988
#990
b0000110001 #
1%
0/
#995
0%
#998
#1000
1%
1/
#1005
0%
#1008
#1010
b0000110010 #
1%
0/
#1015
0%
#1018
#1020
1%
1/
#1025
0%
#1028
#1030
b0000110011 #
1%
0/
#1035
0%
#1038
#1040
1%
1/
#1045
0%
#1048
#1050
b0000110100 #
1%
0/
#1055
0%
#1058
#1060
1%
1/
#1065
0%
#1068
#1070
b0000110101 #
1%
0/
#1075
0%
#1078
#1080
1%
1/
#1085
0%
#1088
#1090
b0000110110 #
1%
0/
#1095
0%
#1098
#1100
1%
1/
#1105
0%
#1108
#1110
b0000110111 #
1%
0/
#1115
0%
#1118
#1120
1%
1/
#1125
0%
#1128
#1130
b0000111000 #
1%
0/
#1135
0%
#1138
#1140
1%
1/
#1145
0%
#1148
#1150
b0000111001 #
1%
0/
#1155
0%
#1158
#1160
1%
1/
#1165
0%
#1168
#1170
b0000111010 #
1%
0/
#1175
0%
#1178
#1180
1%
1/
#1185
0%
#1188
#1190
b0000111011 #
1%
0/
#1195
0%
#1198
#1200
1%
1/
#1205
0%
#1208
#1210
b0000111100 #
1%
0/
#1215
0%
#1218
#1220
1%
1/
#1225
0%
#1228
#1230
b0000111101 #
1%
0/
#1235
0%
#1238
#1240
1%
1/
#1245
0%
#1248
#1250
b0000111110 #
1%
0/
#1255
0%
#1258
#1260
1%
1/
#1265
0%
#1268
#1270
b0000111111 #
1%
0/
#1275
0%
#1278
#1280
1%
1/
#1285
0%
#1288
#1290
b0001000000 #
1%
0/
#1295
0%
#1298
#1300
1%
1/
#1305
0%
#1308
#1310
b0001000001 #
1%
0/
#1315
0%
#1318
#1320
1%
1/
#1325
0%
#1328
#1330
b0001000010 #
1%
0/
#1335
0%
#1338
#1340
1%
1/
#1345
0%
#1348
#1350
b0001000011 #
1%
0/
#1355
0%
#1358
#1360
1%
1/
#1365
0%
#1368
#1370
b0001000100 #
1%
0/
#1375
0%
#1378
#1380
1%
1/
#1385
0%
#1388
#1390
b0001000101 #
1%
0/
#1395
0%
#1398
#1400
1%
1/
#1405
0%
#1408
#1410
b0001000110 #
1%
0/
#1415
0%
#1418
#1420
1%
1/
#1425
0%
#1428
#1430
b0001000111 #
1%
0/
#1435
0%
#1438
#1440
1%
1/
#1445
0%
#1448
#1450
b0001001000 #
1%
0/
#1455
0%
#1458
#1460
1%
1/
#1465
0%
#1468
#1470
b0001001001 #
1%
0/
#1475
0%
#1478
#1480
1%
1/
#1485
0%
#1488
#1490
b0001001010 #
1%
0/
#1495
0%
#1498
#1500
1%
1/
#1505
0%
#1508
#1510
b0001001011 #
1%
0/
#1515
0%
#1518
#1520
1%
1/
#1525
0%
#1528
#1530
b0001001100 #
1%
0/
#1535
0%
#1538
#1540
1%
1/
#1545
0%
#1548
#1550
b0001001101 #
1%
0/
#1555
0%
#1558
#1560
1%
1/
#1565
0%
#1568
#1570
b0001001110 #
1%
0/
#1575
0%
#1578
#1580
1%
1/
#1585
0%
#1588
#1590
b0001001111 #
1%
0/
#1595
0%
#1598
#1600
1%
1/
#1605
0%
#1608
#1610
b0001010000 #
1%
0/
#1615
0%
#1618
#1620
1%
1/
#1625
0%
#1628
#1630
b0001010001 #
1%
0/
#1635
0%
#1638
#1640
1%
1/
#1645
0%
#1648
#1650
b0001010010 #
1%
0/
#1655
0%
#1658
#1660
1%
1/
#1665
0%
#1668
#1670
b0001010011 #
1%
0/
#1675
0%
#1678
#1680
1%
1/
#1685
0%
#1688
#1690
b0001010100 #
1%
0/
#1695
0%
#1698
#1700
1%
1/
#1705
0%
#1708
#1710
b0001010101 #
1%
0/
#1715
0%
#1718
#1720
1%
1/
#1725
0%
#1728
#1730
b0001010110 #
1%
0/
#1735
0%
#1738
#1740
1%
1/
#1745
0%
#1748
#1750
b0001010111 #
1%
0/
#1755
0%
#1758
#1760
1%
1/
#1765
0%
#1768
#1770
b0001011000 #
1%
0/
#1775
0%
#1778
#1780
1%
1/
#1785
0%
#1788
#1790
b0001011001 #
1%
0/
#1795
0%
#1798
#1800
1%
1/
#1805
0%
#1808
#1810
b0001011010 #
1%
0/
#1815
0%
#1818
#1820
1%
1/
#1825
0%
#1828
#1830
b0001011011 #
1%
0/
#1835
0%
#1838
#1840
1%
1/
#1845
0%
#1848
#1850
b0001011100 #
1%
0/
#1855
0%
#1858
#1860
1%
1/
#1865
0%
#1868
#1870
b0001011101 #
1%
0/
#1875
0%
#1878
#1880
1%
1/
#1885
0%
#1888
#1890
b0001011110 #
1%
0/
#1895
0%
#1898
#1900
1%
1/
#1905
0%
#1908
#1910
b0001011111 #
1%
0/
#1915
0%
#1918
#1920
1%
1/
#1925
0%
#1928
#1930
b0001100000 #
1%
0/
#1935
0%
#1938
#1940
1%
1/
#1945
0%
#1948
#1950
b0001100001 #
1%
0/
#1955
0%
#1958
#1960
1%
1/
#1965
0%
#1968
#1970
b0001100010 #
1%
0/
#1975
0%
#1978
#1980
1%
1/
#1985
0%
#1988
#1990
b0001100011 #
1%
0/
#1995
0%
#1998
#2000
1%
1/
#2005
0%
#2008
#2010
b0001100100 #
1%
0/
#2015
0%
#2018
#2020
1%
1/
#2025
0%
#2028
#2030
b0001100101 #
1%
0/
#2035
0%
#2038
#2040
1%
1/
#2045
0%
#2048
#2050
b0001100110 #
1%
0/
#2055
0%
#2058
#2060
1%
1/
#2065
0%
#2068
#2070
b0001100111 #
1%
0/
#2075
0%
#2078
#2080
1%
1/
#2085
0%
#2088
#2090
b0001101000 #
1%
0/
#2095
0%
#2098
#2100
1%
1/
#2105
0%
#2108
#2110
b0001101001 #
1%
0/
#2115
0%
#2118
#2120
1%
1/
#2125
0%
#2128
#2130
b0001101010 #
1%
0/
#2135
0%
#2138
#2140
1%
1/
#2145
0%
#2148
#2150
b0001101011 #
1%
0/
#2155
0%
#2158
#2160
1%
1/
#2165
0%
#2168
#2170
b0001101100 #
1%
0/
#2175
0%
#2178
#2180
1%
1/
#2185
0%
#2188
#2190
b0001101101 #
1%
0/
#2195
0%
#2198
#2200
1%
1/
#2205
0%
#2208
#2210
b0001101110 #
1%
0/
#2215
0%
#2218
#2220
1%
1/
#2225
0%
#2228
#2230
b0001101111 #
1%
0/
#2235
0%
#2238
#2240
1%
1/
#2245
0%
#2248
#2250
b0001110000 #
1%
0/
11
13
#2255
0%
#2258
#2260
1%
1/
#2265
0%
#2268
#2270
b0001110001 #
1%
0/
#2275
0%
#2278
#2280
1%
1/
#2285
0%
#2288
#2290
b0001110010 #
1%
0/
#2295
0%
#2298
#2300
1%
1/
#2305
0%
#2308
#2310
b0001110011 #
1%
0/
#2315
0%
#2318
#2320
1%
1/
#2325
0%
#2328
#2330
b0001110100 #
1%
0/
#2335
0%
#2338
#2340
1%
1/
#2345
0%
#2348
#2350
b0001110101 #
1%
0/
#2355
0%
#2358
#2360
1%
1/
#2365
0%
#2368
#2370
b0001110110 #
1%
0/
#2375
0%
#2378
#2380
1%
1/
#2385
0%
#2388
#2390
b0001110111 #
1%
0/
#2395
0%
#2398
#2400
1%
1/
#2405
0%
#2408
#2410
b0001111000 #
1%
0/
#2415
0%
#2418
#2420
1%
1/
#2425
0%
#2428
#2430
b0001111001 #
1%
0/
#2435
0%
#2438
#2440
1%
1/
#2445
0%
#2448
#2450
b0001111010 #
1%
0/
#2455
0%
#2458
#2460
1%
1/
#2465
0%
#2468
#2470
b0001111011 #
1%
0/
#2475
0%
#2478
#2480
1%
1/
#2485
0%
#2488
#2490
b0001111100 #
1%
0/
#2495
0%
#2498
#2500
1%
1/
#2505
0%
#2508
#2510
b0001111101 #
1%
0/
#2515
0%
#2518
#2520
1%
1/
#2525
0%
#2528
#2530
b0001111110 #
1%
0/
#2535
0%
#2538
#2540
1%
1/
#2545
0%
#2548
#2550
b0001111111 #
1%
0/
#2555
0%
#2558
#2560
1%
1/
#2565
0%
#2568
#2570
b0010000000 #
1%
0/
#2575
0%
#2578
#2580
1%
1/
#2585
0%
#2588
#2590
b0010000001 #
1%
0/
#2595
0%
#2598
#2600
1%
1/
#2605
0%
#2608
#2610
b0010000010 #
1%
0/
#2615
0%
#2618
#2620
1%
1/
#2625
0%
#2628
#2630
b0010000011 #
1%
0/
#2635
0%
#2638
#2640
1%
1/
#2645
0%
#2648
#2650
b0010000100 #
1%
0/
#2655
0%
#2658
#2660
1%
1/
#2665
0%
#2668
#2670
b0010000101 #
1%
0/
#2675
0%
#2678
#2680
1%
1/
#2685
0%
#2688
#2690
b0010000110 #
1%
0/
#2695
0%
#2698
#2700
1%
1/
#2705
0%
#2708
#2710
b0010000111 #
1%
0/
#2715
0%
#2718
#2720
1%
1/
#2725
0%
#2728
#2730
b0010001000 #
1%
0/
#2735
0%
#2738
#2740
1%
1/
#2745
0%
#2748
#2750
b0010001001 #
1%
0/
#2755
0%
#2758
#2760
1%
1/
#2765
0%
#2768
#2770
b0010001010 #
1%
0/
#2775
0%
#2778
#2780
1%
1/
#2785
0%
#2788
#2790
b0010001011 #
1%
0/
#2795
0%
#2798
#2800
1%
1/
#2805
0%
#2808
#2810
b0010001100 #
1%
0/
#2815
0%
#2818
#2820
1%
1/
#2825
0%
#2828
#2830
b0010001101 #
1%
0/
#2835
0%
#2838
#2840
1%
1/
#2845
0%
#2848
#2850
b0010001110 #
1%
0/
#2855
0%
#2858
#2860
1%
1/
#2865
0%
#2868
#2870
b0010001111 #
1%
0/
#2875
0%
#2878
#2880
1%
1/
#2885
0%
#2888
#2890
b0010010000 #
1%
0/
#2895
0%
#2898
#2900
1%
1/
#2905
0%
#2908
#2910
b0010010001 #
1%
0/
#2915
0%
#2918
#2920
1%
1/
#2925
0%
#2928
#2930
b0010010010 #
1%
0/
#2935
0%
#2938
#2940
1%
1/
#2945
0%
#2948
#2950
b0010010011 #
1%
0/
#2955
0%
#2958
#2960
1%
1/
#2965
0%
#2968
#2970
b0010010100 #
1%
0/
#2975
0%
#2978
#2980
1%
1/
#2985
0%
#2988
#2990
b0010010101 #
1%
0/
#2995
0%
#2998
#3000
1%
1/
#3005
0%
#3008
#3010
b0010010110 #
1%
0/
#3015
0%
#3018
#3020
1%
1/
#3025
0%
#3028
#3030
b0010010111 #
1%
0/
#3035
0%
#3038
#3040
1%
1/
#3045
0%
#3048
#3050
b0010011000 #
1%
0/
#3055
0%
#3058
#3060
1%
1/
#3065
0%
#3068
#3070
b0010011001 #
1%
0/
#3075
0%
#3078
#3080
1%
1/
#3085
0%
#3088
#3090
b0010011010 #
1%
0/
#3095
0%
#3098
#3100
1%
1/
#3105
0%
#3108
#3110
b0010011011 #
1%
0/
#3115
0%
#3118
#3120
1%
1/
#3125
0%
#3128
#3130
b0010011100 #
1%
0/
#3135
0%
#3138
#3140
1%
1/
#3145
0%
#3148
#3150
b0010011101 #
1%
0/
#3155
0%
#3158
#3160
1%
1/
#3165
0%
#3168
#3170
b0010011110 #
1%
0/
#3175
0%
#3178
#3180
1%
1/
#3185
0%
#3188
#3190
b0010011111 #
1%
0/
#3195
0%
#3198
#3200
1%
1/
#3205
0%
#3208
#3210
b0010100000 #
1%
0/
#3215
0%
#3218
#3220
1%
1/
#3225
0%
#3228
#3230
b0010100001 #
1%
b0000000001 -
0/
#3235
0%
#3238
#3240
1%
1/
#3245
0%
#3248
#3250
b0010100010 #
1%
b0000000010 -
0/
#3255
0%
#3258
#3260
1%
1/
#3265
0%
#3268
#3270
b0010100011 #
1%
b0000000011 -
0/
#3275
0%
#3278
#3280
1%
1/
#3285
0%
#3288
#3290
b0010100100 #
1%
b0000000100 -
0/
#3295
0%
#3298
#3300
1%
1/
#3305
0%
#3308
#3310
b0010100101 #
1%
b0000000101 -
0/
#3315
0%
#3318
#3320
1%
1/
#3325
0%
#3328
#3330
b0010100110 #
1%
b0000000110 -
0/
#3335
0%
#3338
#3340
1%
1/
#3345
0%
#3348
#3350
b0010100111 #
1%
b0000000111 -
0/
#3355
0%
#3358
#3360
1%
1/
#3365
0%
#3368
#3370
b0010101000 #
1%
b0000001000 -
0/
#3375
0%
#3378
#3380
1%
1/
#3385
0%
#3388
#3390
b0010101001 #
1%
b0000001001 -
0/
#3395
0%
#3398
#3400
1%
1/
#3405
0%
#3408
#3410
b0010101010 #
1%
b0000001010 -
0/
#3415
0%
#3418
#3420
1%
1/
#3425
0%
#3428
#3430
b0010101011 #
1%
b0000001011 -
0/
#3435
0%
#3438
#3440
1%
1/
#3445
0%
#3448
#3450
b0010101100 #
1%
b0000001100 -
0/
#3455
0%
#3458
#3460
1%
1/
#3465
0%
#3468
#3470
b0010101101 #
1%
b0000001101 -
0/
#3475
0%
#3478
#3480
1%
1/
#3485
0%
#3488
#3490
b0010101110 #
1%
b0000001110 -
0/
#3495
0%
#3498
#3500
1%
1/
#3505
0%
#3508
#3510
b0010101111 #
1%
b0000001111 -
0/
#3515
0%
#3518
#3520
1%
1/
#3525
0%
#3528
#3530
b0010110000 #
1%
b0000010000 -
0/
#3535
0%
#3538
#3540
1%
1/
#3545
0%
#3548
#3550
b0010110001 #
1%
b0000010001 -
0/
#3555
0%
#3558
#3560
1%
1/
#3565
0%
#3568
#3570
b0010110010 #
1%
b0000010010 -
0/
#3575
0%
#3578
#3580
1%
1/
#3585
0%
#3588
#3590
b0010110011 #
1%
b0000010011 -
0/
#3595
0%
#3598
#3600
1%
1/
#3605
0%
#3608
#3610
b0010110100 #
1%
b0000010100 -
0/
#3615
0%
#3618
#3620
1%
1/
#3625
0%
#3628
#3630
b0010110101 #
1%
b0000010101 -
0/
#3635
0%
#3638
#3640
1%
1/
#3645
0%
#3648
#3650
b0010110110 #
1%
b0000010110 -
0/
#3655
0%
#3658
#3660
1%
1/
#3665
0%
#3668
#3670
b0010110111 #
1%
b0000010111 -
0/
#3675
0%
#3678
#3680
1%
1/
#3685
0%
#3688
#3690
b0010111000 #
1%
b0000011000 -
0/
#3695
0%
#3698
#3700
1%
1/
#3705
0%
#3708
#3710
b0010111001 #
1%
b0000011001 -
0/
#3715
0%
#3718
#3720
1%
1/
#3725
0%
#3728
#3730
b0010111010 #
1%
b0000011010 -
0/
#3735
0%
#3738
#3740
1%
1/
#3745
0%
#3748
#3750
b0010111011 #
1%
b0000011011 -
0/
#3755
0%
#3758
#3760
1%
1/
#3765
0%
#3768
#3770
b0010111100 #
1%
b0000011100 -
0/
#3775
0%
#3778
#3780
1%
1/
#3785
0%
#3788
#3790
b0010111101 #
1%
b0000011101 -
0/
#3795
0%
#3798
#3800
1%
1/
#3805
0%
#3808
#3810
b0010111110 #
1%
b0000011110 -
0/
#3815
0%
#3818
#3820
1%
1/
#3825
0%
#3828
#3830
b0010111111 #
1%
b0000011111 -
0/
#3835
0%
#3838
#3840
1%
1/
#3845
0%
#3848
#3850
b0011000000 #
1%
b0000100000 -
0/
#3855
0%
#3858
#3860
1%
1/
#3865
0%
#3868
#3870
b0011000001 #
1%
b0000100001 -
0/
#3875
0%
#3878
#3880
1%
1/
#3885
0%
#3888
#3890
b0011000010 #
1%
b0000100010 -
0/
#3895
0%
#3898
#3900
1%
1/
#3905
0%
#3908
#3910
b0011000011 #
1%
b0000100011 -
0/
#3915
0%
#3918
#3920
1%
1/
#3925
0%
#3928
#3930
b0011000100 #
1%
b0000100100 -
0/
#3935
0%
#3938
#3940
1%
1/
#3945
0%
#3948
#3950
b0011000101 #
1%
b0000100101 -
0/
#3955
0%
#3958
#3960
1%
1/
#3965
0%
#3968
#3970
b0011000110 #
1%
b0000100110 -
0/
#3975
0%
#3978
#3980
1%
1/
#3985
0%
#3988
#3990
b0011000111 #
1%
b0000100111 -
0/
#3995
0%
#3998
#4000
1%
1/
#4005
0%
#4008
#4010
b0011001000 #
1%
b0000101000 -
0/
#4015
0%
#4018
#4020
1%
1/
#4025
0%
#4028
#4030
b0011001001 #
1%
b0000101001 -
0/
#4035
0%
#4038
#4040
1%
1/
#4045
0%
#4048
#4050
b0011001010 #
1%
b0000101010 -
0/
#4055
0%
#4058
#4060
1%
1/
#4065
0%
#4068
#4070
b0011001011 #
1%
b0000101011 -
0/
#4075
0%
#4078
#4080
1%
1/
#4085
0%
#4088
#4090
b0011001100 #
1%
b0000101100 -
0/
#4095
0%
#4098
#4100
1%
1/
#4105
0%
#4108
#4110
b0011001101 #
1%
b0000101101 -
0/
#4115
0%
#4118
#4120
1%
1/
#4125
0%
#4128
#4130
b0011001110 #
1%
b0000101110 -
0/
#4135
0%
#4138
#4140
1%
1/
#4145
0%
#4148
#4150
b0011001111 #
1%
b0000101111 -
0/
#4155
0%
#4158
#4160
1%
1/
#4165
0%
#4168
#4170
b0011010000 #
1%
b0000110000 -
0/
#4175
0%
#4178
#4180
1%
1/
#4185
0%
#4188
#4190
b0011010001 #
1%
b0000110001 -
0/
#4195
0%
#4198
#4200
1%
1/
#4205
0%
#4208
#4210
b0011010010 #
1%
b0000110010 -
0/
#4215
0%
#4218
#4220
1%
1/
#4225
0%
#4228
#4230
b0011010011 #
1%
b0000110011 -
0/
#4235
0%
#4238
#4240
1%
1/
#4245
0%
#4248
#4250
b0011010100 #
1%
b0000110100 -
0/
#4255
0%
#4258
#4260
1%
1/
#4265
0%
#4268
#4270
b0011010101 #
1%
b0000110101 -
0/
#4275
0%
#4278
#4280
1%
1/
#4285
0%
#4288
#4290
b0011010110 #
1%
b0000110110 -
0/
#4295
0%
#4298
#4300
1%
1/
#4305
0%
#4308
#4310
b0011010111 #
1%
b0000110111 -
0/
#4315
0%
#4318
#4320
1%
1/
#4325
0%
#4328
#4330
b0011011000 #
1%
b0000111000 -
0/
#4335
0%
#4338
#4340
1%
1/
#4345
0%
#4348
#4350
b0011011001 #
1%
b0000111001 -
0/
#4355
0%
#4358
#4360
1%
1/
#4365
0%
#4368
#4370
b0011011010 #
1%
b0000111010 -
0/
#4375
0%
#4378
#4380
1%
1/
#4385
0%
#4388
#4390
b0011011011 #
1%
b0000111011 -
0/
#4395
0%
#4398
#4400
1%
1/
#4405
0%
#4408
#4410
b0011011100 #
1%
b0000111100 -
0/
#4415
0%
#4418
#4420
1%
1/
#4425
0%
#4428
#4430
b0011011101 #
1%
b0000111101 -
0/
#4435
0%
#4438
#4440
1%
1/
#4445
0%
#4448
#4450
b0011011110 #
1%
b0000111110 -
0/
#4455
0%
#4458
#4460
1%
1/
#4465
0%
#4468
#4470
b0011011111 #
1%
b0000111111 -
0/
#4475
0%
#4478
#4480
1%
1/
#4485
0%
#4488
#4490
b0011100000 #
1%
b0001000000 -
0/
#4495
0%
#4498
#4500
1%
1/
#4505
0%
#4508
#4510
b0011100001 #
1%
b0001000001 -
0/
#4515
0%
#4518
#4520
1%
1/
#4525
0%
#4528
#4530
b0011100010 #
1%
b0001000010 -
0/
#4535
0%
#4538
#4540
1%
1/
#4545
0%
#4548
#4550
b0011100011 #
1%
b0001000011 -
0/
#4555
0%
#4558
#4560
1%
1/
#4565
0%
#4568
#4570
b0011100100 #
1%
b0001000100 -
0/
#4575
0%
#4578
#4580
1%
1/
#4585
0%
#4588
#4590
b0011100101 #
1%
b0001000101 -
0/
#4595
0%
#4598
#4600
1%
1/
#4605
0%
#4608
#4610
b0011100110 #
1%
b0001000110 -
0/
#4615
0%
#4618
#4620
1%
1/
#4625
0%
#4628
#4630
b0011100111 #
1%
b0001000111 -
0/
#4635
0%
#4638
#4640
1%
1/
#4645
0%
#4648
#4650
b0011101000 #
1%
b0001001000 -
0/
#4655
0%
#4658
#4660
1%
1/
#4665
0%
#4668
#4670
b0011101001 #
1%
b0001001001 -
0/
#4675
0%
#4678
#4680
1%
1/
#4685
0%
#4688
#4690
b0011101010 #
1%
b0001001010 -
0/
#4695
0%
#4698
#4700
1%
1/
#4705
0%
#4708
#4710
b0011101011 #
1%
b0001001011 -
0/
#4715
0%
#4718
#4720
1%
1/
#4725
0%
#4728
#4730
b0011101100 #
1%
b0001001100 -
0/
#4735
0%
#4738
#4740
1%
1/
#4745
0%
#4748
#4750
b0011101101 #
1%
b0001001101 -
0/
#4755
0%
#4758
#4760
1%
1/
#4765
0%
#4768
#4770
b0011101110 #
1%
b0001001110 -
0/
#4775
0%
#4778
#4780
1%
1/
#4785
0%
#4788
#4790
b0011101111 #
1%
b0001001111 -
0/
#4795
0%
#4798
#4800
1%
1/
#4805
0%
#4808
#4810
b0011110000 #
1%
b0001010000 -
0/
#4815
0%
#4818
#4820
1%
1/
#4825
0%
#4828
#4830
b0011110001 #
1%
b0001010001 -
0/
#4835
0%
#4838
#4840
1%
1/
#4845
0%
#4848
#4850
b0011110010 #
1%
b0001010010 -
0/
#4855
0%
#4858
#4860
1%
1/
#4865
0%
#4868
#4870
b0011110011 #
1%
b0001010011 -
0/
#4875
0%
#4878
#4880
1%
1/
#4885
0%
#4888
#4890
b0011110100 #
1%
b0001010100 -
0/
#4895
0%
#4898
#4900
1%
1/
#4905
0%
#4908
#4910
b0011110101 #
1%
b0001010101 -
0/
#4915
0%
#4918
#4920
1%
1/
#4925
0%
#4928
#4930
b0011110110 #
1%
b0001010110 -
0/
#4935
0%
#4938
#4940
1%
1/
#4945
0%
#4948
#4950
b0011110111 #
1%
b0001010111 -
0/
#4955
0%
#4958
#4960
1%
1/
#4965
0%
#4968
#4970
b0011111000 #
1%
b0001011000 -
0/
#4975
0%
#4978
#4980
1%
1/
#4985
0%
#4988
#4990
b0011111001 #
1%
b0001011001 -
0/
#4995
0%
#4998
#5000
1%
1/
#5005
0%
#5008
#5010
b0011111010 #
1%
b0001011010 -
0/
#5015
0%
#5018
#5020
1%
1/
#5025
0%
#5028
#5030
b0011111011 #
1%
b0001011011 -
0/
#5035
0%
#5038
#5040
1%
1/
#5045
0%
#5048
#5050
b0011111100 #
1%
b0001011100 -
0/
#5055
0%
#5058
#5060
1%
1/
#5065
0%
#5068
#5070
b0011111101 #
1%
b0001011101 -
0/
#5075
0%
#5078
#5080
1%
1/
#5085
0%
#5088
#5090
b0011111110 #
1%
b0001011110 -
0/
#5095
0%
#5098
#5100
1%
1/
#5105
0%
#5108
#5110
b0011111111 #
1%
b0001011111 -
0/
#5115
0%
#5118
#5120
1%
1/
#5125
0%
#5128
#5130
b0100000000 #
1%
b0001100000 -
0/
#5135
0%
#5138
#5140
1%
1/
#5145
0%
#5148
#5150
b0100000001 #
1%
b0001100001 -
0/
#5155
0%
#5158
#5160
1%
1/
#5165
0%
#5168
#5170
b0100000010 #
1%
b0001100010 -
0/
#5175
0%
#5178
#5180
1%
1/
#5185
0%
#5188
#5190
b0100000011 #
1%
b0001100011 -
0/
#5195
0%
#5198
#5200
1%
1/
#5205
0%
#5208
#5210
b0100000100 #
1%
b0001100100 -
0/
#5215
0%
#5218
#5220
1%
1/
#5225
0%
#5228
#5230
b0100000101 #
1%
b0001100101 -
0/
#5235
0%
#5238
#5240
1%
1/
#5245
0%
#5248
#5250
b0100000110 #
1%
b0001100110 -
0/
#5255
0%
#5258
#5260
1%
1/
#5265
0%
#5268
#5270
b0100000111 #
1%
b0001100111 -
0/
